<?xml version='1.0' encoding='UTF-8' standalone='no'?>
<!DOCTYPE
  svg>
<!-- Generator: Adobe Illustrator 13.0.1, SVG Export Plug-In . SVG Version: 6.00 Build 14948)  -->
  <svg
  xmlns="http://www.w3.org/2000/svg"
  gorn="0"
  height="0.633389in"
  version="1.1"
  width="0.711639in"
  enable-background="new 0 0 51.238 45.604"
  xml:space="preserve"
  id="breadboard"
  x="0px"
  viewBox="0 0 51.238 45.604"
  y="0px">
  <desc>
    <referenceFile>BME680_Module_breadboard.svg</referenceFile>
  </desc>
  <g
    gorn="0.1"
    id="Board">
    <g>
      <g>
        <path
          fill="#7F1256"
          d="M39.385,15.927c-0.782,0-1.417-0.635-1.417-1.418c0,0,0-10.428,0-10.428l0.007,0.006l-3.962-3.962H0.125v45.354h33.881l3.962-3.962V31.094c0-0.782,0.635-1.417,1.417-1.417h11.729v-13.75H39.385z M3.524,42.254c-0.783,0-1.417-0.633-1.417-1.416c0-0.781,0.634-1.416,1.417-1.416s1.418,0.635,1.418,1.416C4.942,41.622,4.307,42.254,3.524,42.254z M3.524,35.057c-0.783,0-1.417-0.633-1.417-1.414c0-0.783,0.634-1.418,1.417-1.418s1.418,0.635,1.418,1.418C4.942,34.424,4.307,35.057,3.524,35.057z M3.524,27.858c-0.783,0-1.417-0.633-1.417-1.416s0.634-1.418,1.417-1.418s1.418,0.635,1.418,1.418S4.307,27.858,3.524,27.858z M3.524,20.66c-0.783,0-1.417-0.634-1.417-1.416c0-0.783,0.634-1.418,1.417-1.418s1.418,0.635,1.418,1.418C4.942,20.026,4.307,20.66,3.524,20.66z M3.524,13.462c-0.783,0-1.417-0.634-1.417-1.416c0-0.783,0.634-1.419,1.417-1.419s1.418,0.636,1.418,1.419C4.942,12.829,4.307,13.462,3.524,13.462z M3.524,6.263c-0.783,0-1.417-0.635-1.417-1.418c0-0.781,0.634-1.416,1.417-1.416s1.418,0.635,1.418,1.416C4.942,5.628,4.307,6.263,3.524,6.263z M31.081,41.651c-1.723,0-3.117-1.394-3.117-3.118c0-1.723,1.395-3.117,3.117-3.117c1.725,0,3.118,1.395,3.118,3.117C34.199,40.257,32.806,41.651,31.081,41.651z M31.081,10.277c-1.723,0-3.117-1.394-3.117-3.118c0-1.723,1.395-3.117,3.117-3.117c1.725,0,3.118,1.395,3.118,3.117C34.199,8.883,32.806,10.277,31.081,10.277z"
        />
      </g>
    </g>
    <path
      stroke="#A51976"
      fill="none"
      d="M34.006,45.479H0.125V0.125h33.888l-0.007-0.007l3.969,3.969l-0.007-0.006c0,0,0,10.427,0,10.428c0,0.783,0.635,1.418,1.417,1.418h11.729v13.75H39.385c-0.782,0-1.417,0.635-1.417,1.417v10.423l0.007-0.007L34.006,45.479z"
      stroke-width="0.25"
    />
    <g>
      <line
        y1="43.704"
        y2="43.704"
        x1="5.353"
        stroke="#897A58"
        x2="33.353"
        fill="none"
        stroke-linecap="round"
        stroke-width="0.4"
      />
      <line
        y1="43.704"
        y2="40.656"
        x1="33.353"
        stroke="#897A58"
        x2="36.399"
        fill="none"
        stroke-linecap="round"
        stroke-width="0.4"
      />
      <line
        y1="40.656"
        y2="29.595"
        x1="36.399"
        stroke="#897A58"
        x2="36.399"
        fill="none"
        stroke-linecap="round"
        stroke-width="0.4"
      />
    </g>
    <g>
      <line
        y1="1.965"
        y2="1.965"
        x1="5.353"
        stroke="#897A58"
        x2="33.353"
        fill="none"
        stroke-linecap="round"
        stroke-width="0.4"
      />
      <line
        y1="1.965"
        y2="5.012"
        x1="33.353"
        stroke="#897A58"
        x2="36.399"
        fill="none"
        stroke-linecap="round"
        stroke-width="0.4"
      />
      <line
        y1="1.819"
        y2="4.866"
        x1="33.353"
        stroke="#E7D7BC"
        x2="36.399"
        fill="none"
        stroke-linecap="round"
        stroke-width="0.1"
      />
      <line
        y1="1.868"
        y2="1.868"
        x1="5.353"
        stroke="#E7D7BC"
        x2="33.353"
        fill="none"
        stroke-linecap="round"
        stroke-width="0.1"
      />
      <line
        y1="5.012"
        y2="16.066"
        x1="36.399"
        stroke="#897A58"
        x2="36.399"
        fill="none"
        stroke-linecap="round"
        stroke-width="0.4"
      />
    </g>
    <g>
      <g
        gorn="0.1.4.0"
        id="connector0pin_2_">
        <g>
          <path
            fill="#897A58"
            d="M3.524,2.862c-1.097,0-1.985,0.889-1.985,1.984s0.889,1.984,1.985,1.984s1.985-0.889,1.985-1.984S4.621,2.862,3.524,2.862z M3.524,6.263c-0.783,0-1.417-0.635-1.417-1.418c0-0.781,0.634-1.416,1.417-1.416s1.418,0.635,1.418,1.416C4.942,5.628,4.307,6.263,3.524,6.263z"
          />
        </g>
      </g>
      <circle
        cx="3.524"
        cy="4.845"
        stroke="#CDBE9D"
        gorn="0.1.4.1"
        r="1.275"
        fill="none"
        stroke-width="0.25"
        id="connector0pin"
      />
      <g
        gorn="0.1.4.2"
        id="connector1pin_2_">
        <g>
          <path
            fill="#897A58"
            d="M3.524,10.061c-1.097,0-1.985,0.889-1.985,1.985c0,1.096,0.889,1.983,1.985,1.983s1.985-0.888,1.985-1.983C5.509,10.95,4.621,10.061,3.524,10.061z M3.524,13.462c-0.783,0-1.417-0.634-1.417-1.416c0-0.783,0.634-1.419,1.417-1.419s1.418,0.636,1.418,1.419C4.942,12.829,4.307,13.462,3.524,13.462z"
          />
        </g>
      </g>
      <circle
        cx="3.524"
        cy="12.046"
        stroke="#CDBE9D"
        gorn="0.1.4.3"
        r="1.275"
        fill="none"
        stroke-width="0.25"
        id="connector1pin"
      />
      <g
        gorn="0.1.4.4"
        id="connector2pin_2_">
        <g>
          <path
            fill="#897A58"
            d="M3.524,17.26c-1.097,0-1.985,0.886-1.985,1.984c0,1.098,0.889,1.984,1.985,1.984s1.985-0.887,1.985-1.984C5.509,18.146,4.621,17.26,3.524,17.26z M3.524,20.66c-0.783,0-1.417-0.634-1.417-1.416c0-0.783,0.634-1.418,1.417-1.418s1.418,0.635,1.418,1.418C4.942,20.026,4.307,20.66,3.524,20.66z"
          />
        </g>
      </g>
      <circle
        cx="3.524"
        cy="19.244"
        stroke="#CDBE9D"
        gorn="0.1.4.5"
        r="1.275"
        fill="none"
        stroke-width="0.25"
        id="connector2pin"
      />
      <g
        gorn="0.1.4.6"
        id="connector3pin_3_">
        <g>
          <path
            fill="#897A58"
            d="M3.524,24.458c-1.097,0-1.985,0.887-1.985,1.984s0.889,1.984,1.985,1.984s1.985-0.887,1.985-1.984S4.621,24.458,3.524,24.458z M3.524,27.858c-0.783,0-1.417-0.633-1.417-1.416s0.634-1.418,1.417-1.418s1.418,0.635,1.418,1.418S4.307,27.858,3.524,27.858z"
          />
        </g>
      </g>
      <circle
        cx="3.524"
        cy="26.442"
        stroke="#CDBE9D"
        gorn="0.1.4.7"
        r="1.275"
        fill="none"
        stroke-width="0.25"
        id="connector3pin"
      />
      <g
        gorn="0.1.4.8"
        id="connector4pin_3_">
        <g>
          <path
            fill="#897A58"
            d="M3.524,31.659c-1.097,0-1.985,0.889-1.985,1.984s0.889,1.982,1.985,1.982s1.985-0.887,1.985-1.982S4.621,31.659,3.524,31.659z M3.524,35.057c-0.783,0-1.417-0.633-1.417-1.414c0-0.783,0.634-1.418,1.417-1.418s1.418,0.635,1.418,1.418C4.942,34.424,4.307,35.057,3.524,35.057z"
          />
        </g>
      </g>
      <circle
        cx="3.524"
        cy="33.643"
        stroke="#CDBE9D"
        gorn="0.1.4.9"
        r="1.275"
        fill="none"
        stroke-width="0.25"
        id="connector4pin"
      />
      <g
        gorn="0.1.4.10"
        id="connector5pin_2_">
        <g>
          <path
            fill="#897A58"
            d="M3.524,38.856c-1.097,0-1.985,0.887-1.985,1.984c0,1.096,0.889,1.984,1.985,1.984s1.985-0.889,1.985-1.984C5.509,39.743,4.621,38.856,3.524,38.856z M3.524,42.254c-0.783,0-1.417-0.633-1.417-1.416c0-0.781,0.634-1.416,1.417-1.416s1.418,0.635,1.418,1.416C4.942,41.622,4.307,42.254,3.524,42.254z"
          />
        </g>
      </g>
      <circle
        cx="3.524"
        cy="40.838"
        stroke="#CDBE9D"
        gorn="0.1.4.11"
        r="1.275"
        fill="none"
        stroke-width="0.25"
        id="connector5pin"
      />
      <path
        stroke="#CDBE9D"
        fill="none"
        d="M4.184,38.968c0.772,0.271,1.326,1.006,1.326,1.872c0,0.863-0.552,1.598-1.323,1.871"
        stroke-width="0.1"
      />
      <path
        stroke="#CDBE9D"
        fill="none"
        d="M4.184,31.77c0.772,0.271,1.326,1.006,1.326,1.871c0,0.863-0.552,1.598-1.323,1.871"
        stroke-width="0.1"
      />
      <path
        stroke="#CDBE9D"
        fill="none"
        d="M4.184,24.569c0.772,0.271,1.326,1.006,1.326,1.873c0,0.863-0.552,1.598-1.323,1.871"
        stroke-width="0.1"
      />
      <path
        stroke="#CDBE9D"
        fill="none"
        d="M4.184,17.372c0.772,0.271,1.326,1.006,1.326,1.872c0,0.863-0.552,1.598-1.323,1.871"
        stroke-width="0.1"
      />
      <path
        stroke="#CDBE9D"
        fill="none"
        d="M4.184,10.173c0.772,0.271,1.326,1.006,1.326,1.872c0,0.863-0.552,1.598-1.323,1.871"
        stroke-width="0.1"
      />
      <path
        stroke="#CDBE9D"
        fill="none"
        d="M4.184,2.975C4.956,3.246,5.51,3.98,5.509,4.847c0,0.863-0.552,1.598-1.323,1.871"
        stroke-width="0.1"
      />
    </g>
    <g>
      <g>
        <path
          fill="#897A58"
          d="M31.081,34.282c-2.347,0-4.253,1.906-4.253,4.252c0,2.348,1.906,4.254,4.253,4.254c2.348,0,4.252-1.906,4.252-4.254C35.333,36.188,33.429,34.282,31.081,34.282z M31.081,41.652c-1.723,0-3.117-1.394-3.117-3.118c0-1.723,1.395-3.117,3.117-3.117c1.725,0,3.118,1.395,3.118,3.117C34.199,40.258,32.806,41.652,31.081,41.652z"
        />
      </g>
    </g>
    <path
      stroke="#CDBE9D"
      fill="none"
      d="M31.081,35.557c1.646,0,2.977,1.331,2.977,2.976c0,1.646-1.33,2.977-2.977,2.977c-1.645,0-2.976-1.33-2.976-2.977C28.105,36.888,29.437,35.557,31.081,35.557z"
      stroke-width="0.25"
    />
    <g>
      <g>
        <path
          fill="#897A58"
          d="M31.081,2.907c-2.347,0-4.253,1.906-4.253,4.252c0,2.348,1.906,4.254,4.253,4.254c2.348,0,4.252-1.906,4.252-4.254C35.333,4.813,33.429,2.907,31.081,2.907z M31.081,10.277c-1.723,0-3.117-1.394-3.117-3.118c0-1.723,1.395-3.117,3.117-3.117c1.725,0,3.118,1.395,3.118,3.117C34.199,8.883,32.806,10.277,31.081,10.277z"
        />
      </g>
    </g>
    <circle
      cx="31.081"
      cy="7.159"
      stroke="#CDBE9D"
      r="2.977"
      fill="none"
      stroke-width="0.25"
    />
    <path
      stroke="#E7D7BC"
      fill="none"
      d="M32.494,34.522c1.653,0.582,2.839,2.16,2.839,4.011s-1.184,3.427-2.834,4.011"
      stroke-width="0.1"
    />
    <path
      stroke="#E7D7BC"
      fill="none"
      d="M32.494,3.147c1.653,0.583,2.839,2.16,2.839,4.011c0,1.851-1.184,3.426-2.834,4.011"
      stroke-width="0.1"
    />
  </g>
  <g
    gorn="0.2"
    id="Components">
    <g
      gorn="0.2.0"
      id="C">
      <path
        fill="#ABABAB"
        d="M31.951,24.135c0-0.078,0.063-0.142,0.142-0.142h2.268c0.078,0,0.143,0.063,0.143,0.142v1.984c0,0.078-0.064,0.142-0.143,0.142h-2.268c-0.078,0-0.142-0.063-0.142-0.142V24.135z"
      />
      <path
        fill="#ABABAB"
        d="M31.951,19.864c0-0.078,0.063-0.142,0.142-0.142h2.268c0.078,0,0.143,0.063,0.143,0.142v1.984c0,0.078-0.064,0.142-0.143,0.142h-2.268c-0.078,0-0.142-0.063-0.142-0.142V19.864z"
      />
      <path
        fill="#DDDDDD"
        d="M32.167,21.137c0-0.146,0.118-0.266,0.266-0.266h1.59c0.146,0,0.265,0.119,0.265,0.266v3.711c0,0.146-0.118,0.264-0.265,0.264h-1.59c-0.147,0-0.266-0.118-0.266-0.264V21.137z"
      />
      <path
        stroke="#828282"
        stroke-linejoin="round"
        fill="none"
        stroke-linecap="round"
        d="M32.433,25.112c-0.147,0-0.266-0.118-0.266-0.264v-3.711c0-0.146,0.118-0.266,0.266-0.266"
        stroke-width="0.15"
      />
      <line
        y1="20.872"
        y2="20.872"
        x1="32.433"
        stroke="#A6A6A6"
        x2="34.022"
        stroke-linejoin="round"
        fill="none"
        stroke-linecap="round"
        stroke-width="0.15"
      />
      <line
        y1="25.112"
        y2="25.112"
        x1="34.022"
        stroke="#A6A6A6"
        x2="32.433"
        stroke-linejoin="round"
        fill="none"
        stroke-linecap="round"
        stroke-width="0.15"
      />
      <path
        stroke="#EEEEEE"
        stroke-linejoin="round"
        fill="none"
        stroke-linecap="round"
        d="M34.022,20.872c0.146,0,0.265,0.119,0.265,0.266v3.711c0,0.146-0.118,0.264-0.265,0.264"
        stroke-width="0.15"
      />
      <rect
        height="2.338"
        width="2.12"
        fill="#956132"
        x="32.167"
        y="21.814"
      />
      <line
        y1="24.152"
        y2="21.814"
        x1="34.287"
        stroke="#B57441"
        x2="34.287"
        fill="none"
        stroke-width="0.15"
      />
      <line
        y1="24.152"
        y2="21.814"
        x1="32.167"
        stroke="#704525"
        x2="32.167"
        fill="none"
        stroke-width="0.15"
      />
    </g>
    <g
      gorn="0.2.1"
      id="C_1_">
      <path
        fill="#ABABAB"
        d="M36.076,24.135c0-0.078,0.063-0.142,0.142-0.142h2.268c0.078,0,0.143,0.063,0.143,0.142v1.984c0,0.078-0.064,0.142-0.143,0.142h-2.268c-0.078,0-0.142-0.063-0.142-0.142V24.135z"
      />
      <path
        fill="#ABABAB"
        d="M36.076,19.864c0-0.078,0.063-0.142,0.142-0.142h2.268c0.078,0,0.143,0.063,0.143,0.142v1.984c0,0.078-0.064,0.142-0.143,0.142h-2.268c-0.078,0-0.142-0.063-0.142-0.142V19.864z"
      />
      <path
        fill="#DDDDDD"
        d="M36.292,21.137c0-0.146,0.118-0.266,0.266-0.266h1.59c0.146,0,0.265,0.119,0.265,0.266v3.711c0,0.146-0.118,0.264-0.265,0.264h-1.59c-0.147,0-0.266-0.118-0.266-0.264V21.137z"
      />
      <path
        stroke="#828282"
        stroke-linejoin="round"
        fill="none"
        stroke-linecap="round"
        d="M36.558,25.112c-0.147,0-0.266-0.118-0.266-0.264v-3.711c0-0.146,0.118-0.266,0.266-0.266"
        stroke-width="0.15"
      />
      <line
        y1="20.872"
        y2="20.872"
        x1="36.558"
        stroke="#A6A6A6"
        x2="38.147"
        stroke-linejoin="round"
        fill="none"
        stroke-linecap="round"
        stroke-width="0.15"
      />
      <line
        y1="25.112"
        y2="25.112"
        x1="38.147"
        stroke="#A6A6A6"
        x2="36.558"
        stroke-linejoin="round"
        fill="none"
        stroke-linecap="round"
        stroke-width="0.15"
      />
      <path
        stroke="#EEEEEE"
        stroke-linejoin="round"
        fill="none"
        stroke-linecap="round"
        d="M38.147,20.872c0.146,0,0.265,0.119,0.265,0.266v3.711c0,0.146-0.118,0.264-0.265,0.264"
        stroke-width="0.15"
      />
      <rect
        height="2.338"
        width="2.12"
        fill="#956132"
        x="36.292"
        y="21.814"
      />
      <line
        y1="24.152"
        y2="21.814"
        x1="38.412"
        stroke="#B57441"
        x2="38.412"
        fill="none"
        stroke-width="0.15"
      />
      <line
        y1="24.152"
        y2="21.814"
        x1="36.292"
        stroke="#704525"
        x2="36.292"
        fill="none"
        stroke-width="0.15"
      />
    </g>
    <g
      gorn="0.2.2"
      id="C_3_">
      <path
        fill="#ABABAB"
        d="M20.397,6.123c-0.078,0-0.142-0.063-0.142-0.142V3.713c0-0.078,0.063-0.143,0.142-0.143h1.984c0.078,0,0.143,0.064,0.143,0.143v2.268c0,0.078-0.064,0.142-0.143,0.142H20.397z"
      />
      <path
        fill="#ABABAB"
        d="M16.126,6.123c-0.078,0-0.142-0.063-0.142-0.142V3.713c0-0.078,0.063-0.143,0.142-0.143h1.984c0.078,0,0.142,0.064,0.142,0.143v2.268c0,0.078-0.063,0.142-0.142,0.142H16.126z"
      />
      <path
        fill="#DDDDDD"
        d="M17.399,5.907c-0.146,0-0.266-0.118-0.266-0.266v-1.59c0-0.146,0.119-0.265,0.266-0.265h3.711c0.146,0,0.264,0.118,0.264,0.265v1.59c0,0.147-0.118,0.266-0.264,0.266H17.399z"
      />
      <path
        stroke="#828282"
        stroke-linejoin="round"
        fill="none"
        stroke-linecap="round"
        d="M21.374,5.641c0,0.147-0.118,0.266-0.264,0.266h-3.711c-0.146,0-0.266-0.118-0.266-0.266"
        stroke-width="0.15"
      />
      <line
        y1="5.641"
        y2="4.051"
        x1="17.134"
        stroke="#A6A6A6"
        x2="17.134"
        stroke-linejoin="round"
        fill="none"
        stroke-linecap="round"
        stroke-width="0.15"
      />
      <line
        y1="4.051"
        y2="5.641"
        x1="21.374"
        stroke="#A6A6A6"
        x2="21.374"
        stroke-linejoin="round"
        fill="none"
        stroke-linecap="round"
        stroke-width="0.15"
      />
      <path
        stroke="#EEEEEE"
        stroke-linejoin="round"
        fill="none"
        stroke-linecap="round"
        d="M17.134,4.051c0-0.146,0.119-0.265,0.266-0.265h3.711c0.146,0,0.264,0.118,0.264,0.265"
        stroke-width="0.15"
      />
      <rect
        height="2.12"
        width="2.338"
        fill="#956132"
        x="18.076"
        y="3.787"
      />
      <line
        y1="3.787"
        y2="3.787"
        x1="20.414"
        stroke="#B57441"
        x2="18.076"
        fill="none"
        stroke-width="0.15"
      />
      <line
        y1="5.907"
        y2="5.907"
        x1="20.414"
        stroke="#704525"
        x2="18.076"
        fill="none"
        stroke-width="0.15"
      />
    </g>
    <g
      gorn="0.2.3"
      id="R103">
      <rect
        height="1.635"
        width="7.087"
        fill="#8C8C8C"
        x="15.114"
        y="27.59"
      />
      <rect
        height="1.092"
        width="7.087"
        fill="#8C8C8C"
        x="15.114"
        y="25.31"
      />
      <rect
        height="1.091"
        width="7.087"
        fill="#8C8C8C"
        x="15.114"
        y="23.041"
      />
      <rect
        height="1.636"
        width="7.087"
        fill="#8C8C8C"
        x="15.114"
        y="20.229"
      />
      <g
        gorn="0.2.3.4"
        id="Shadow">
        <g
          gorn="0.2.3.4.0"
          id="Dark">
          <path
            stroke="#808080"
            fill="none"
            stroke-linecap="round"
            d="M20.768,24.153h-0.353l0,0.002c-0.313,0-0.568,0.254-0.568,0.566"
            stroke-width="0.15"
          />
          <path
            stroke="#808080"
            fill="none"
            stroke-linecap="round"
            d="M20.768,21.886h-0.353c-0.313,0-0.566,0.253-0.566,0.567"
            stroke-width="0.15"
          />
          <path
            stroke="#808080"
            fill="none"
            stroke-linecap="round"
            d="M17.435,22.453c0-0.313-0.253-0.567-0.567-0.567h-0.353"
            stroke-width="0.15"
          />
          <path
            stroke="#808080"
            fill="none"
            stroke-linecap="round"
            d="M17.436,24.721c0-0.312-0.254-0.566-0.568-0.566v-0.002h-0.353"
            stroke-width="0.15"
          />
          <path
            stroke="#808080"
            fill="none"
            stroke-linecap="round"
            d="M17.435,26.99c0-0.312-0.253-0.567-0.567-0.567h-0.353"
            stroke-width="0.15"
          />
          <path
            stroke="#808080"
            fill="none"
            stroke-linecap="round"
            d="M20.768,26.422h-0.353h0c-0.313,0-0.567,0.255-0.567,0.567"
            stroke-width="0.15"
          />
          <line
            y1="29.258"
            y2="29.258"
            x1="20.768"
            stroke="#808080"
            x2="16.516"
            fill="none"
            stroke-linecap="round"
            stroke-width="0.15"
          />
        </g>
        <g
          gorn="0.2.3.4.1"
          id="Mid">
          <line
            y1="29.258"
            y2="27.557"
            x1="16.516"
            stroke="#B3B3B3"
            x2="16.516"
            fill="none"
            stroke-linecap="round"
            stroke-width="0.15"
          />
          <line
            y1="27.557"
            y2="29.258"
            x1="20.768"
            stroke="#B3B3B3"
            x2="20.768"
            fill="none"
            stroke-linecap="round"
            stroke-width="0.15"
          />
          <line
            y1="25.29"
            y2="26.422"
            x1="20.768"
            stroke="#B3B3B3"
            x2="20.768"
            fill="none"
            stroke-linecap="round"
            stroke-width="0.15"
          />
          <line
            y1="26.422"
            y2="25.29"
            x1="16.516"
            stroke="#B3B3B3"
            x2="16.516"
            fill="none"
            stroke-linecap="round"
            stroke-width="0.15"
          />
          <line
            y1="23.02"
            y2="24.153"
            x1="20.768"
            stroke="#B3B3B3"
            x2="20.768"
            fill="none"
            stroke-linecap="round"
            stroke-width="0.15"
          />
          <line
            y1="24.153"
            y2="23.02"
            x1="16.516"
            stroke="#B3B3B3"
            x2="16.516"
            fill="none"
            stroke-linecap="round"
            stroke-width="0.15"
          />
          <line
            y1="20.185"
            y2="21.886"
            x1="20.768"
            stroke="#B3B3B3"
            x2="20.768"
            fill="none"
            stroke-linecap="round"
            stroke-width="0.15"
          />
          <line
            y1="21.886"
            y2="20.185"
            x1="16.516"
            stroke="#B3B3B3"
            x2="16.516"
            fill="none"
            stroke-linecap="round"
            stroke-width="0.15"
          />
        </g>
        <g
          gorn="0.2.3.4.2"
          id="Light">
          <path
            stroke="#F2F2F2"
            fill="none"
            stroke-linecap="round"
            d="M19.847,24.721c0,0.313,0.254,0.567,0.568,0.567l0,0.001h0.353"
            stroke-width="0.15"
          />
          <path
            stroke="#F2F2F2"
            fill="none"
            stroke-linecap="round"
            d="M19.848,22.453c0,0.313,0.253,0.567,0.567,0.567c-0.001,0,0.353,0,0.353,0"
            stroke-width="0.15"
          />
          <path
            stroke="#F2F2F2"
            fill="none"
            stroke-linecap="round"
            d="M16.516,23.02h0.353c0.313,0,0.567-0.253,0.567-0.567"
            stroke-width="0.15"
          />
          <path
            stroke="#F2F2F2"
            fill="none"
            stroke-linecap="round"
            d="M16.516,25.29h0.353v-0.001c0.313,0,0.568-0.254,0.568-0.567"
            stroke-width="0.15"
          />
          <path
            stroke="#F2F2F2"
            fill="none"
            stroke-linecap="round"
            d="M16.516,27.557h0.353c0.313,0,0.567-0.255,0.567-0.567"
            stroke-width="0.15"
          />
          <path
            stroke="#F2F2F2"
            stroke-linejoin="round"
            fill="none"
            stroke-linecap="round"
            d="M19.848,26.99c0,0.312,0.253,0.567,0.566,0.567h0.353"
            stroke-width="0.15"
          />
          <line
            y1="20.185"
            y2="20.185"
            x1="16.516"
            stroke="#F2F2F2"
            x2="20.768"
            fill="none"
            stroke-linecap="round"
            stroke-width="0.15"
          />
        </g>
      </g>
      <path
        fill="#DDDDDD"
        d="M20.415,26.422c-0.313,0-0.567,0.255-0.567,0.567s0.253,0.567,0.566,0.567h0.353v1.701h-4.252v-1.701h0.353c0.313,0,0.567-0.255,0.567-0.567s-0.253-0.567-0.567-0.567h-0.353V25.29h0.353v-0.001c0.313,0,0.568-0.254,0.568-0.567c0-0.312-0.254-0.566-0.568-0.566v-0.002h-0.353V23.02h0.353c0.313,0,0.567-0.253,0.567-0.567s-0.253-0.567-0.567-0.567h-0.353v-1.701h4.252v1.701h-0.353c-0.313,0-0.566,0.253-0.566,0.567s0.253,0.567,0.567,0.567c-0.001,0,0.353,0,0.353,0v1.133h-0.353l0,0.002c-0.313,0-0.568,0.254-0.568,0.566c0,0.313,0.254,0.567,0.568,0.567l0,0.001h0.353v1.133H20.415"
      />
      <rect
        height="8.5"
        width="2.375"
        fill="#3D3D3D"
        x="17.454"
        y="20.508"
      />
      <g
        gorn="0.2.3.7"
        id="_x31_03">
        <path
          gorn="0.2.3.7.0"
          fill="#FFFFFF"
          d="M17.905,23.583v-0.172h0.891c0.029,0,0.059,0,0.09,0.001c0.033,0,0.064,0,0.096,0.002c0.031,0,0.062,0.002,0.092,0.002c0.027,0.002,0.053,0.002,0.076,0.003c-0.012-0.011-0.021-0.021-0.031-0.029c-0.008-0.009-0.016-0.017-0.023-0.026c-0.008-0.008-0.016-0.018-0.025-0.027c-0.008-0.01-0.02-0.021-0.031-0.035l-0.117-0.145l0.119-0.094l0.293,0.374v0.146H17.905z"
          id="_x31_"
        />
        <path
          gorn="0.2.3.7.1"
          fill="#FFFFFF"
          d="M18.62,24.998c-0.115,0-0.219-0.008-0.309-0.025c-0.092-0.016-0.168-0.043-0.232-0.08c-0.062-0.036-0.111-0.084-0.145-0.142s-0.049-0.128-0.049-0.211c0-0.077,0.016-0.144,0.049-0.2c0.033-0.058,0.082-0.104,0.145-0.143c0.064-0.037,0.141-0.064,0.232-0.084c0.09-0.018,0.193-0.027,0.309-0.027s0.219,0.008,0.311,0.025c0.09,0.016,0.168,0.043,0.23,0.078c0.062,0.037,0.111,0.084,0.145,0.141c0.033,0.059,0.049,0.128,0.049,0.21c0,0.077-0.016,0.145-0.049,0.202s-0.08,0.104-0.143,0.143c-0.064,0.038-0.141,0.066-0.232,0.085C18.841,24.988,18.737,24.998,18.62,24.998z M18.62,24.266c-0.098,0-0.182,0.005-0.256,0.015c-0.072,0.01-0.133,0.025-0.182,0.047s-0.084,0.05-0.109,0.084c-0.023,0.035-0.037,0.078-0.037,0.128s0.012,0.093,0.037,0.128c0.023,0.035,0.061,0.064,0.107,0.086c0.049,0.023,0.109,0.039,0.184,0.049c0.072,0.011,0.158,0.016,0.256,0.016s0.184-0.005,0.256-0.016c0.074-0.01,0.135-0.025,0.182-0.049c0.049-0.021,0.084-0.051,0.109-0.086c0.023-0.035,0.035-0.078,0.035-0.128s-0.012-0.093-0.035-0.128c-0.025-0.034-0.061-0.062-0.109-0.084c-0.047-0.021-0.107-0.037-0.182-0.047C18.804,24.271,18.718,24.266,18.62,24.266z"
          id="_x30_"
        />
        <path
          gorn="0.2.3.7.2"
          fill="#FFFFFF"
          d="M18.999,26.03c-0.049,0-0.092-0.008-0.131-0.022s-0.072-0.036-0.102-0.062c-0.027-0.027-0.051-0.06-0.07-0.098c-0.018-0.038-0.031-0.08-0.039-0.126h-0.006c-0.016,0.115-0.051,0.203-0.109,0.263c-0.061,0.06-0.137,0.09-0.23,0.09c-0.062,0-0.121-0.011-0.172-0.031c-0.053-0.021-0.098-0.054-0.135-0.097c-0.039-0.043-0.068-0.098-0.088-0.163c-0.021-0.065-0.031-0.144-0.031-0.233c0-0.071,0.006-0.138,0.016-0.2c0.012-0.063,0.031-0.122,0.061-0.178h0.166c-0.029,0.057-0.053,0.118-0.068,0.184c-0.018,0.066-0.025,0.13-0.025,0.19c0,0.06,0.008,0.111,0.02,0.155c0.014,0.044,0.031,0.08,0.057,0.107c0.023,0.029,0.053,0.05,0.088,0.062c0.035,0.014,0.074,0.021,0.119,0.021c0.043,0,0.082-0.009,0.113-0.026c0.031-0.017,0.059-0.041,0.078-0.073c0.021-0.032,0.035-0.071,0.045-0.116c0.01-0.047,0.016-0.099,0.016-0.156v-0.13h0.146v0.13c0,0.053,0.008,0.1,0.02,0.141c0.014,0.041,0.031,0.075,0.057,0.104c0.023,0.027,0.053,0.048,0.086,0.062s0.068,0.021,0.109,0.021c0.033,0,0.064-0.006,0.09-0.018c0.027-0.012,0.051-0.028,0.068-0.05c0.02-0.021,0.033-0.047,0.043-0.077s0.014-0.063,0.014-0.1c0-0.069-0.01-0.131-0.031-0.184c-0.023-0.054-0.051-0.104-0.086-0.152l0.121-0.09c0.021,0.024,0.039,0.053,0.057,0.082c0.018,0.031,0.033,0.063,0.047,0.1s0.023,0.074,0.031,0.115c0.008,0.04,0.012,0.083,0.012,0.129c0,0.07-0.008,0.132-0.025,0.186c-0.018,0.053-0.043,0.097-0.074,0.133s-0.068,0.062-0.111,0.081C19.097,26.021,19.05,26.03,18.999,26.03z"
          id="_x33_"
        />
      </g>
      <g
        gorn="0.2.3.8"
        id="Shading_2_">
        <line
          y1="29.008"
          y2="29.008"
          x1="19.829"
          stroke="#2A2A2A"
          x2="17.454"
          fill="none"
          stroke-linecap="round"
          stroke-width="0.15"
        />
        <line
          y1="29.008"
          y2="20.508"
          x1="17.454"
          stroke="#4D4D4D"
          x2="17.454"
          fill="none"
          stroke-linecap="round"
          stroke-width="0.15"
        />
        <line
          y1="20.508"
          y2="29.008"
          x1="19.829"
          stroke="#4D4D4D"
          x2="19.829"
          fill="none"
          stroke-linecap="round"
          stroke-width="0.15"
        />
        <line
          y1="20.508"
          y2="20.508"
          x1="17.454"
          stroke="#555555"
          x2="19.829"
          fill="none"
          stroke-linecap="round"
          stroke-width="0.15"
        />
      </g>
    </g>
    <g
      gorn="0.2.4"
      id="R">
      <path
        fill="#8C8C8C"
        d="M21.964,34.998c0,0.056-0.039,0.102-0.088,0.102h-1.95c-0.049,0-0.088-0.046-0.088-0.102v-2.632c0-0.056,0.039-0.102,0.088-0.102h1.95c0.049,0,0.088,0.046,0.088,0.102V34.998z"
      />
      <path
        fill="#8C8C8C"
        d="M18.221,34.998c0,0.056-0.04,0.102-0.089,0.102h-1.948c-0.049,0-0.089-0.046-0.089-0.102v-2.632c0-0.056,0.04-0.102,0.089-0.102h1.948c0.049,0,0.089,0.046,0.089,0.102V34.998z"
      />
      <g>
        <g>
          <path
            fill="#DDDDDD"
            d="M17.175,34.742c-0.146,0-0.266-0.119-0.266-0.266v-1.59c0-0.148,0.119-0.266,0.266-0.266h3.711c0.146,0,0.264,0.117,0.264,0.266v1.59c0,0.146-0.117,0.266-0.264,0.266H17.175z"
          />
          <path
            stroke="#666666"
            stroke-linejoin="round"
            fill="none"
            stroke-linecap="round"
            d="M21.149,34.476c0,0.146-0.117,0.266-0.264,0.266h-3.711c-0.146,0-0.266-0.119-0.266-0.266"
            stroke-width="0.15"
          />
          <line
            y1="34.476"
            y2="32.886"
            x1="16.909"
            stroke="#A6A6A6"
            x2="16.909"
            stroke-linejoin="round"
            fill="none"
            stroke-linecap="round"
            stroke-width="0.15"
          />
          <line
            y1="32.886"
            y2="34.476"
            x1="21.149"
            stroke="#A6A6A6"
            x2="21.149"
            stroke-linejoin="round"
            fill="none"
            stroke-linecap="round"
            stroke-width="0.15"
          />
          <path
            stroke="#EEEEEE"
            stroke-linejoin="round"
            fill="none"
            stroke-linecap="round"
            d="M16.909,32.886c0-0.148,0.119-0.266,0.266-0.266h3.711c0.146,0,0.264,0.117,0.264,0.266"
            stroke-width="0.15"
          />
          <rect
            height="2.121"
            width="2.336"
            fill="#3D3D3D"
            x="17.853"
            y="32.621"
          />
          <line
            y1="32.621"
            y2="32.621"
            x1="20.188"
            stroke="#666666"
            x2="17.853"
            fill="none"
            stroke-width="0.15"
          />
          <line
            y1="34.742"
            y2="34.742"
            x1="20.188"
            stroke="#121212"
            x2="17.853"
            fill="none"
            stroke-width="0.15"
          />
        </g>
        <g>
          <path
            fill="#EEEEEE"
            d="M18.491,33.051l0.079,0.121c0.026,0.041,0.039,0.09,0.039,0.146v0.656c0,0.057-0.013,0.105-0.039,0.146l-0.079,0.121c-0.026,0.041-0.058,0.061-0.095,0.061h-0.183c-0.037,0-0.069-0.02-0.095-0.061l-0.079-0.121C18.013,34.081,18,34.032,18,33.975v-0.656c0-0.057,0.013-0.105,0.039-0.146l0.079-0.121c0.026-0.041,0.058-0.061,0.095-0.061h0.183C18.433,32.991,18.464,33.01,18.491,33.051z M18.487,33.974v-0.653c0-0.006-0.002-0.012-0.005-0.017l-0.077-0.12c-0.003-0.004-0.007-0.006-0.011-0.008h-0.181c-0.004,0.002-0.007,0.004-0.011,0.008l-0.078,0.12c-0.002,0.005-0.003,0.011-0.003,0.017v0.652c0,0.006,0.001,0.012,0.003,0.017l0.078,0.12c0.003,0.004,0.007,0.006,0.011,0.008h0.181c0.004-0.002,0.008-0.004,0.011-0.007l0.077-0.12C18.485,33.986,18.486,33.98,18.487,33.974z"
          />
          <path
            fill="#EEEEEE"
            d="M19.34,33.413c0,0.057-0.013,0.105-0.039,0.146l-0.058,0.087l0.058,0.089c0.026,0.041,0.039,0.09,0.039,0.146v0.094c0,0.057-0.013,0.105-0.039,0.146l-0.079,0.121c-0.026,0.041-0.058,0.061-0.095,0.061h-0.183c-0.037,0-0.069-0.02-0.095-0.061l-0.079-0.121c-0.026-0.041-0.039-0.09-0.039-0.146v-0.094c0-0.057,0.013-0.105,0.039-0.146l0.058-0.089l-0.058-0.087c-0.026-0.041-0.039-0.09-0.039-0.146v-0.094c0-0.057,0.013-0.105,0.039-0.146l0.079-0.121c0.026-0.041,0.058-0.061,0.095-0.061h0.183c0.037,0,0.069,0.02,0.095,0.061l0.079,0.121c0.026,0.041,0.039,0.09,0.039,0.146V33.413z M18.853,33.321v0.09c0,0.006,0.001,0.012,0.003,0.017l0.078,0.118c0.003,0.004,0.007,0.007,0.011,0.008h0.181c0.004-0.001,0.007-0.004,0.011-0.008l0.077-0.118c0.003-0.005,0.004-0.011,0.005-0.017v-0.09c0-0.006-0.002-0.012-0.005-0.017l-0.077-0.12c-0.003-0.004-0.007-0.006-0.011-0.008h-0.181c-0.004,0.002-0.007,0.004-0.011,0.008l-0.078,0.12C18.854,33.309,18.854,33.315,18.853,33.321z M19.218,33.973v-0.091c0-0.007-0.001-0.012-0.003-0.017l-0.078-0.119c-0.003-0.004-0.007-0.006-0.011-0.008h-0.181c-0.004,0.002-0.008,0.005-0.011,0.01l-0.079,0.118c-0.002,0.005-0.003,0.011-0.003,0.017v0.091c0,0.007,0.001,0.012,0.003,0.017l0.078,0.119c0.003,0.004,0.007,0.006,0.011,0.008h0.181c0.004-0.002,0.008-0.004,0.011-0.006l0.078-0.122C19.216,33.985,19.218,33.979,19.218,33.973z"
          />
          <path
            fill="#EEEEEE"
            d="M19.588,33.303c-0.002,0.005-0.003,0.011-0.004,0.017v0.654c0,0.006,0.002,0.012,0.004,0.017l0.077,0.119c0.003,0.004,0.007,0.006,0.011,0.008h0.182c0.004-0.002,0.008-0.004,0.011-0.007l0.1-0.155c0.012-0.018,0.026-0.027,0.042-0.027c0.017,0,0.031,0.01,0.043,0.027c0.012,0.02,0.018,0.041,0.018,0.067c0,0.024-0.006,0.047-0.018,0.065l-0.101,0.154c-0.026,0.041-0.058,0.061-0.095,0.061h-0.183c-0.037,0-0.069-0.02-0.095-0.061l-0.079-0.121c-0.026-0.041-0.039-0.09-0.039-0.146v-0.656c0-0.057,0.013-0.105,0.039-0.146l0.079-0.121c0.026-0.041,0.058-0.061,0.095-0.061h0.183c0.037,0,0.069,0.02,0.095,0.061l0.101,0.154c0.012,0.019,0.018,0.041,0.018,0.065c0,0.026-0.006,0.048-0.018,0.067c-0.012,0.018-0.026,0.027-0.043,0.027c-0.016,0-0.031-0.009-0.043-0.027l-0.099-0.154c-0.003-0.004-0.007-0.006-0.011-0.008h-0.181c-0.004,0.002-0.007,0.004-0.011,0.008L19.588,33.303z"
          />
        </g>
      </g>
    </g>
    <g
      gorn="0.2.5"
      id="R_1_">
      <path
        fill="#8C8C8C"
        d="M21.964,42.31c0,0.056-0.039,0.102-0.088,0.102h-1.95c-0.049,0-0.088-0.046-0.088-0.102v-2.632c0-0.056,0.039-0.102,0.088-0.102h1.95c0.049,0,0.088,0.046,0.088,0.102V42.31z"
      />
      <path
        fill="#8C8C8C"
        d="M18.221,42.31c0,0.056-0.04,0.102-0.089,0.102h-1.948c-0.049,0-0.089-0.046-0.089-0.102v-2.632c0-0.056,0.04-0.102,0.089-0.102h1.948c0.049,0,0.089,0.046,0.089,0.102V42.31z"
      />
      <g>
        <g>
          <path
            fill="#DDDDDD"
            d="M17.175,42.054c-0.146,0-0.266-0.119-0.266-0.266v-1.59c0-0.148,0.119-0.266,0.266-0.266h3.711c0.146,0,0.264,0.117,0.264,0.266v1.59c0,0.146-0.117,0.266-0.264,0.266H17.175z"
          />
          <path
            stroke="#666666"
            stroke-linejoin="round"
            fill="none"
            stroke-linecap="round"
            d="M21.149,41.789c0,0.146-0.117,0.266-0.264,0.266h-3.711c-0.146,0-0.266-0.119-0.266-0.266"
            stroke-width="0.15"
          />
          <line
            y1="41.789"
            y2="40.199"
            x1="16.909"
            stroke="#A6A6A6"
            x2="16.909"
            stroke-linejoin="round"
            fill="none"
            stroke-linecap="round"
            stroke-width="0.15"
          />
          <line
            y1="40.199"
            y2="41.789"
            x1="21.149"
            stroke="#A6A6A6"
            x2="21.149"
            stroke-linejoin="round"
            fill="none"
            stroke-linecap="round"
            stroke-width="0.15"
          />
          <path
            stroke="#EEEEEE"
            stroke-linejoin="round"
            fill="none"
            stroke-linecap="round"
            d="M16.909,40.199c0-0.148,0.119-0.266,0.266-0.266h3.711c0.146,0,0.264,0.117,0.264,0.266"
            stroke-width="0.15"
          />
          <rect
            height="2.121"
            width="2.336"
            fill="#3D3D3D"
            x="17.853"
            y="39.933"
          />
          <line
            y1="39.933"
            y2="39.933"
            x1="20.188"
            stroke="#666666"
            x2="17.853"
            fill="none"
            stroke-width="0.15"
          />
          <line
            y1="42.054"
            y2="42.054"
            x1="20.188"
            stroke="#121212"
            x2="17.853"
            fill="none"
            stroke-width="0.15"
          />
        </g>
        <g>
          <path
            fill="#EEEEEE"
            d="M19.568,41.625l-0.079-0.122c-0.026-0.041-0.039-0.09-0.039-0.147v-0.654c0-0.058,0.013-0.106,0.039-0.147l0.079-0.122c0.026-0.039,0.058-0.06,0.095-0.06h0.183c0.037,0,0.069,0.021,0.095,0.06l0.079,0.122c0.026,0.041,0.039,0.09,0.039,0.147v0.654c0,0.058-0.013,0.106-0.039,0.147l-0.079,0.122c-0.026,0.039-0.058,0.06-0.095,0.06h-0.183C19.626,41.685,19.594,41.665,19.568,41.625z M19.572,40.702v0.653c0,0.006,0.002,0.011,0.005,0.017l0.077,0.12c0.003,0.004,0.007,0.007,0.011,0.007h0.181c0.004,0,0.007-0.003,0.011-0.007l0.078-0.12c0.002-0.005,0.003-0.01,0.003-0.017v-0.652c0-0.007-0.001-0.012-0.003-0.017l-0.078-0.12c-0.003-0.004-0.007-0.007-0.011-0.007h-0.181c-0.004,0-0.008,0.002-0.011,0.006l-0.077,0.12C19.574,40.69,19.572,40.696,19.572,40.702z"
          />
          <path
            fill="#EEEEEE"
            d="M18.718,41.264c0-0.058,0.013-0.106,0.039-0.147l0.058-0.087l-0.058-0.089c-0.026-0.041-0.039-0.09-0.039-0.147v-0.092c0-0.058,0.013-0.106,0.039-0.147l0.079-0.122c0.026-0.039,0.058-0.06,0.095-0.06h0.183c0.037,0,0.069,0.021,0.095,0.06l0.079,0.122c0.026,0.041,0.039,0.09,0.039,0.147v0.092c0,0.058-0.013,0.106-0.039,0.147l-0.058,0.089l0.058,0.087c0.026,0.041,0.039,0.09,0.039,0.147v0.092c0,0.058-0.013,0.106-0.039,0.147l-0.079,0.122c-0.026,0.039-0.058,0.06-0.095,0.06h-0.183c-0.037,0-0.069-0.021-0.095-0.06l-0.079-0.122c-0.026-0.041-0.039-0.09-0.039-0.147V41.264z M18.84,40.703v0.091c0,0.006,0.001,0.012,0.003,0.017l0.078,0.118c0.003,0.004,0.007,0.008,0.011,0.008h0.181c0.004,0,0.008-0.004,0.011-0.009l0.079-0.118c0.002-0.005,0.003-0.011,0.003-0.017v-0.091c0-0.006-0.001-0.012-0.003-0.017l-0.078-0.118c-0.003-0.004-0.007-0.008-0.011-0.008h-0.181c-0.004,0-0.008,0.002-0.011,0.006l-0.078,0.121C18.842,40.691,18.841,40.697,18.84,40.703z M19.206,41.355v-0.09c0-0.007-0.001-0.012-0.003-0.017l-0.078-0.118c-0.003-0.005-0.007-0.007-0.011-0.008h-0.181c-0.004,0.001-0.007,0.003-0.011,0.007l-0.077,0.119c-0.003,0.005-0.004,0.01-0.005,0.017v0.09c0,0.006,0.002,0.011,0.005,0.017l0.077,0.12c0.003,0.004,0.007,0.007,0.011,0.007h0.181c0.004,0,0.007-0.003,0.011-0.007l0.078-0.12C19.204,41.367,19.205,41.362,19.206,41.355z"
          />
          <path
            fill="#EEEEEE"
            d="M18.471,41.373c0.002-0.005,0.003-0.011,0.004-0.017v-0.654c0-0.006-0.002-0.012-0.004-0.017l-0.077-0.118c-0.003-0.004-0.007-0.008-0.011-0.008h-0.182c-0.004,0-0.008,0.002-0.011,0.006l-0.1,0.154c-0.012,0.02-0.026,0.028-0.042,0.028c-0.017,0-0.031-0.009-0.043-0.028c-0.012-0.018-0.018-0.04-0.018-0.066c0-0.025,0.006-0.047,0.018-0.066l0.101-0.154c0.026-0.039,0.058-0.06,0.095-0.06h0.183c0.037,0,0.069,0.021,0.095,0.06l0.079,0.122c0.026,0.041,0.039,0.09,0.039,0.147v0.654c0,0.058-0.013,0.106-0.039,0.147l-0.079,0.122c-0.026,0.039-0.058,0.06-0.095,0.06h-0.183c-0.037,0-0.069-0.021-0.095-0.06l-0.101-0.154c-0.012-0.02-0.018-0.041-0.018-0.066c0-0.026,0.006-0.049,0.018-0.066c0.012-0.02,0.026-0.028,0.043-0.028c0.016,0,0.031,0.009,0.043,0.026l0.099,0.155c0.003,0.004,0.007,0.007,0.011,0.007h0.181c0.004,0,0.007-0.004,0.011-0.008L18.471,41.373z"
          />
        </g>
      </g>
    </g>
    <g
      gorn="0.2.6"
      id="_x32_2F">
      <rect
        height="1.408"
        width="1.171"
        fill="#8A8A8A"
        x="28.915"
        y="25.288"
      />
      <rect
        height="1.408"
        width="1.098"
        fill="#8A8A8A"
        x="27.028"
        y="25.288"
      />
      <rect
        height="1.408"
        width="1.098"
        fill="#8A8A8A"
        x="25.121"
        y="25.288"
      />
      <rect
        height="1.408"
        width="1.171"
        fill="#8A8A8A"
        x="28.915"
        y="18.975"
      />
      <rect
        height="1.408"
        width="1.098"
        fill="#8A8A8A"
        x="27.028"
        y="18.975"
      />
      <rect
        height="1.408"
        width="1.098"
        fill="#8A8A8A"
        x="25.121"
        y="18.975"
      />
      <g>
        <rect
          stroke="#000000"
          height="1.606"
          width="0.805"
          fill="#A9A9A9"
          stroke-width="0.0129"
          x="25.268"
          y="24.426"
        />
        <rect
          height="0.402"
          width="0.805"
          fill="#808080"
          x="25.268"
          y="24.844"
        />
      </g>
      <g>
        <rect
          stroke="#000000"
          height="1.606"
          width="0.805"
          fill="#A9A9A9"
          stroke-width="0.0129"
          x="27.176"
          y="24.426"
        />
        <rect
          height="0.402"
          width="0.805"
          fill="#808080"
          x="27.176"
          y="24.844"
        />
      </g>
      <g>
        <rect
          stroke="#000000"
          height="1.609"
          width="0.805"
          fill="#A9A9A9"
          stroke-width="0.0129"
          x="29.098"
          y="24.43"
        />
        <rect
          height="0.402"
          width="0.805"
          fill="#808080"
          x="29.098"
          y="24.85"
        />
      </g>
      <g>
        <rect
          stroke="#000000"
          height="1.61"
          width="0.805"
          fill="#A9A9A9"
          stroke-width="0.0129"
          x="25.268"
          y="19.617"
        />
        <rect
          height="0.402"
          width="0.805"
          fill="#808080"
          x="25.268"
          y="20.407"
        />
      </g>
      <g>
        <rect
          stroke="#000000"
          height="1.61"
          width="0.805"
          fill="#A9A9A9"
          stroke-width="0.0129"
          x="27.176"
          y="19.617"
        />
        <rect
          height="0.402"
          width="0.805"
          fill="#808080"
          x="27.176"
          y="20.407"
        />
      </g>
      <g>
        <rect
          stroke="#000000"
          height="1.609"
          width="0.805"
          fill="#A9A9A9"
          stroke-width="0.0129"
          x="29.098"
          y="19.612"
        />
        <rect
          height="0.4"
          width="0.805"
          fill="#808080"
          x="29.098"
          y="20.401"
        />
      </g>
      <rect
        height="3.219"
        width="5.633"
        display="none"
        x="24.761"
        y="21.227"
      />
      <g
        transform="matrix(1 0 0 1 26.1934 23.2661)">
        <g>
          <g>
            <g>
              <text
                font-family="OCRA"
                font-size="1.2903"
                fill="#555555"
                display="none">22F</text>
            </g>
          </g>
        </g>
      </g>
    </g>
    <g
      gorn="0.2.7"
      id="_x36_82K">
      <rect
        height="1.701"
        width="1.701"
        fill="#8C8C8C"
        x="19.528"
        y="8.475"
      />
      <rect
        height="1.7"
        width="1.701"
        fill="#8C8C8C"
        x="16.843"
        y="15.015"
      />
      <rect
        height="1.7"
        width="1.701"
        fill="#8C8C8C"
        x="22.26"
        y="15.015"
      />
      <g>
        <g>
          <rect
            stroke="#000000"
            height="2.267"
            width="1.134"
            fill="#ABABAB"
            stroke-width="0.05"
            x="17.126"
            y="14.156"
          />
          <rect
            height="0.566"
            width="1.134"
            fill="#828282"
            x="17.126"
            y="14.745"
          />
        </g>
        <g>
          <rect
            stroke="#000000"
            height="2.268"
            width="1.133"
            fill="#ABABAB"
            stroke-width="0.05"
            x="22.544"
            y="14.137"
          />
          <rect
            height="0.566"
            width="1.133"
            fill="#828282"
            x="22.544"
            y="14.725"
          />
        </g>
        <g>
          <rect
            stroke="#000000"
            height="2.269"
            width="1.135"
            fill="#ABABAB"
            stroke-width="0.05"
            x="19.811"
            y="8.769"
          />
          <rect
            height="0.566"
            width="1.135"
            fill="#828282"
            x="19.811"
            y="9.88"
          />
        </g>
        <path
          fill="#333333"
          d="M24.205,13.872c0,0.157-0.126,0.284-0.283,0.284h-7.086c-0.157,0-0.284-0.127-0.284-0.284v-2.551c0-0.157,0.127-0.284,0.284-0.284h7.086c0.157,0,0.283,0.127,0.283,0.284V13.872z"
        />
      </g>
      <g
        gorn="0.2.7.4"
        id="Shading">
        <path
          stroke="#2A2A2A"
          fill="none"
          d="M24.205,13.872c0,0.157-0.126,0.284-0.283,0.284h-7.086c-0.157,0-0.284-0.127-0.284-0.284"
          stroke-width="0.25"
        />
        <line
          y1="13.872"
          y2="11.321"
          x1="16.552"
          stroke="#3D3D3D"
          x2="16.552"
          fill="none"
          stroke-linecap="round"
          stroke-width="0.25"
        />
        <line
          y1="11.321"
          y2="13.872"
          x1="24.205"
          stroke="#3D3D3D"
          x2="24.205"
          fill="none"
          stroke-linecap="round"
          stroke-width="0.25"
        />
        <path
          stroke="#4D4D4D"
          fill="none"
          stroke-linecap="round"
          d="M16.552,11.321c0-0.157,0.127-0.284,0.284-0.284h7.086c0.157,0,0.283,0.127,0.283,0.284"
          stroke-width="0.25"
        />
      </g>
      <g
        transform="matrix(0.75 0 0 1 20.0996 13.2632)">
        <g>
          <g>
            <g>
              <text
                font-family="OCRA"
                font-size="1.5"
                fill="#555555">662K</text>
            </g>
          </g>
        </g>
      </g>
      <path
        stroke="#555555"
        stroke-linejoin="round"
        fill="none"
        stroke-linecap="round"
        d="M17.308,13.274c0-0.407,0.288-0.736,0.643-0.736c0.355,0,0.643,0.329,0.643,0.736h-0.004l0.845,0.001c0-0.666-0.47-1.206-1.051-1.206c-0.581,0-1.051,0.54-1.051,1.206L17.308,13.274z"
        stroke-width="0.13"
      />
    </g>
    <g
      gorn="0.2.8"
      id="BME_Sensor">
      <path
        stroke="#FFFFFF"
        fill="#4D4D4D"
        d="M49.35,26.584c0,0.149-0.119,0.266-0.265,0.266h-7.408c-0.146,0-0.265-0.116-0.265-0.266v-7.406c0-0.146,0.119-0.265,0.265-0.265h7.408c0.146,0,0.265,0.119,0.265,0.265V26.584z"
        stroke-width="0.25"
      />
      <path
        stroke="#B3B3B3"
        fill="#808080"
        d="M48.528,24.557c0,0.782-0.635,1.417-1.417,1.417h-3.544c-0.782,0-1.417-0.635-1.417-1.417v-3.543c0-0.783,0.635-1.417,1.417-1.417h3.544c0.782,0,1.417,0.635,1.417,1.417V24.557z"
        stroke-width="0.5"
      />
      <path
        stroke="#1A1A1A"
        fill="none"
        d="M43.41,26.258c-0.852,0-1.543-0.692-1.543-1.544v-3.858c0-0.852,0.691-1.543,1.543-1.543"
        stroke-width="0.15"
      />
      <path
        stroke="#F2F2F2"
        fill="none"
        stroke-linecap="round"
        d="M43.41,19.313h3.858c0.852,0,1.543,0.691,1.543,1.543v3.858c0,0.852-0.691,1.544-1.543,1.544H43.41"
        stroke-width="0.15"
      />
      <circle
        cx="47.004"
        cy="24.742"
        r="0.333"
        fill="#B3B3B3"
      />
      <circle
        cx="43.587"
        cy="21.144"
        stroke="#F2F2F2"
        r="0.567"
        fill="#333333"
        stroke-width="0.1"
      />
      <g
        gorn="0.2.8.6"
        id="SP">
        <path
          fill="#FFFFFF"
          d="M44.014,24.916c0-0.021,0.006-0.039,0.018-0.055c0.012-0.015,0.025-0.022,0.042-0.022s0.031,0.008,0.044,0.022c0.012,0.016,0.018,0.033,0.018,0.055c0,0.014,0.004,0.025,0.012,0.036c0.008,0.01,0.018,0.015,0.029,0.015h0.299c0.01,0,0.016-0.007,0.016-0.02l-0.449-0.723c-0.019-0.032-0.027-0.067-0.027-0.105v-0.005c0-0.045,0.014-0.084,0.04-0.116c0.026-0.033,0.059-0.05,0.096-0.05h0.299c0.044,0,0.082,0.02,0.114,0.06s0.049,0.088,0.049,0.143c0,0.021-0.006,0.039-0.019,0.055c-0.012,0.015-0.026,0.022-0.043,0.022s-0.031-0.008-0.042-0.022c-0.012-0.016-0.018-0.033-0.018-0.055c0-0.013-0.005-0.024-0.013-0.035c-0.009-0.011-0.019-0.016-0.029-0.016h-0.299c-0.01,0-0.015,0.005-0.015,0.015v0.005v0.006l0.446,0.717c0.021,0.03,0.03,0.065,0.03,0.105c-0.002,0.047-0.016,0.087-0.042,0.121c-0.025,0.033-0.058,0.05-0.095,0.05h-0.299c-0.044,0-0.082-0.02-0.114-0.06S44.014,24.97,44.014,24.916z"
        />
        <path
          fill="#FFFFFF"
          d="M44.881,25.042v-1.094h0.415c0.05,0,0.093,0.022,0.129,0.066c0.035,0.045,0.054,0.098,0.054,0.16v0.27c0,0.062-0.019,0.116-0.054,0.161c-0.036,0.045-0.079,0.067-0.129,0.067h-0.294v0.369c0,0.021-0.006,0.039-0.018,0.054c-0.013,0.015-0.027,0.022-0.044,0.022s-0.03-0.008-0.042-0.022S44.881,25.062,44.881,25.042z M45.002,24.521h0.294c0.016,0,0.03-0.008,0.043-0.022c0.012-0.016,0.019-0.033,0.019-0.055v-0.27c0-0.021-0.007-0.038-0.019-0.053c-0.013-0.015-0.027-0.022-0.043-0.022h-0.294V24.521z"
        />
      </g>
      <g
        gorn="0.2.8.7"
        id="_x31_04">
        <path
          fill="#FFFFFF"
          d="M44.035,23.561c0-0.021,0.006-0.037,0.018-0.053s0.025-0.022,0.042-0.022h0.178v-0.867h-0.178c-0.017,0-0.03-0.007-0.042-0.022s-0.018-0.033-0.018-0.054c0-0.02,0.006-0.037,0.018-0.052s0.025-0.022,0.042-0.022h0.299v1.019h0.118V23.18c0-0.021,0.006-0.039,0.018-0.055c0.011-0.015,0.025-0.022,0.042-0.022s0.031,0.008,0.043,0.022c0.013,0.016,0.019,0.033,0.019,0.055v0.381c0,0.021-0.006,0.039-0.019,0.054c-0.012,0.015-0.026,0.022-0.043,0.022h-0.477c-0.017,0-0.03-0.008-0.042-0.022S44.035,23.582,44.035,23.561z"
        />
        <path
          fill="#FFFFFF"
          d="M44.902,23.486v-0.867c0-0.041,0.012-0.077,0.036-0.106c0.023-0.03,0.052-0.045,0.085-0.045h0.355c0.031,0,0.06,0.015,0.084,0.045s0.037,0.065,0.037,0.106v0.867c0,0.041-0.013,0.076-0.037,0.106c-0.024,0.029-0.053,0.045-0.084,0.045h-0.355c-0.033,0-0.062-0.016-0.085-0.045C44.914,23.562,44.902,23.527,44.902,23.486z M45.023,23.486h0.355v-0.867h-0.355V23.486z"
        />
        <path
          fill="#FFFFFF"
          d="M45.799,23.254v-0.712c0-0.02,0.006-0.037,0.019-0.052c0.012-0.015,0.026-0.022,0.043-0.022s0.031,0.007,0.043,0.022s0.017,0.032,0.017,0.052v0.561h0.237V22.67c0-0.021,0.006-0.039,0.018-0.053c0.012-0.015,0.026-0.022,0.043-0.022s0.03,0.007,0.042,0.022c0.012,0.014,0.019,0.032,0.019,0.053v0.433c0.017,0,0.03,0.008,0.042,0.022c0.012,0.016,0.018,0.033,0.018,0.055c0,0.021-0.006,0.038-0.018,0.053s-0.025,0.021-0.042,0.021v0.307c0,0.021-0.007,0.039-0.019,0.054s-0.025,0.022-0.042,0.022s-0.031-0.008-0.043-0.022s-0.018-0.033-0.018-0.054v-0.307H45.799z"
        />
      </g>
    </g>
  </g>
  <g
    gorn="0.3"
    id="Text">
    <g
      gorn="0.3.0"
      id="CS">
      <path
        fill="#FFFFFF"
        d="M7.112,39.929c-0.008,0.012-0.012,0.024-0.014,0.038v1.527c0.002,0.014,0.006,0.026,0.014,0.038l0.254,0.276c0.011,0.011,0.022,0.017,0.036,0.02h0.6c0.013-0.003,0.025-0.008,0.036-0.015l0.328-0.361c0.041-0.044,0.087-0.065,0.141-0.065c0.056,0,0.103,0.021,0.143,0.064c0.04,0.044,0.059,0.096,0.059,0.156c0,0.059-0.019,0.109-0.058,0.153l-0.332,0.361c-0.088,0.093-0.193,0.14-0.315,0.14H7.4c-0.123,0-0.228-0.047-0.315-0.14l-0.261-0.284c-0.086-0.096-0.128-0.21-0.128-0.343v-1.529c0-0.133,0.042-0.247,0.128-0.343l0.261-0.284C7.173,39.247,7.278,39.2,7.4,39.2h0.602c0.123,0,0.228,0.047,0.315,0.14l0.332,0.361c0.039,0.044,0.058,0.096,0.058,0.153c0,0.061-0.02,0.113-0.06,0.156s-0.087,0.064-0.144,0.064c-0.054,0-0.101-0.021-0.142-0.062l-0.328-0.361C8.024,39.642,8.012,39.636,8,39.633H7.401c-0.013,0.003-0.024,0.009-0.035,0.02L7.112,39.929z"
      />
      <path
        fill="#FFFFFF"
        d="M10.417,39.2c0.123,0,0.228,0.047,0.315,0.14l0.332,0.361c0.039,0.044,0.058,0.097,0.058,0.157c0,0.059-0.02,0.109-0.06,0.152s-0.086,0.064-0.14,0.064c-0.056,0-0.104-0.021-0.145-0.063l-0.329-0.356c-0.011-0.01-0.022-0.016-0.036-0.018H9.818c-0.013,0.002-0.024,0.008-0.035,0.018l-0.258,0.276c-0.006,0.012-0.011,0.024-0.013,0.038v0.211c0.002,0.014,0.006,0.026,0.013,0.038l0.258,0.276c0.011,0.01,0.022,0.016,0.035,0.018h0.599c0.123,0,0.228,0.047,0.315,0.14l0.261,0.284c0.086,0.096,0.129,0.21,0.129,0.343v0.217c0,0.133-0.043,0.247-0.129,0.343l-0.261,0.284c-0.088,0.093-0.193,0.14-0.315,0.14H9.815c-0.123,0-0.228-0.047-0.315-0.14l-0.332-0.361c-0.039-0.044-0.058-0.097-0.058-0.157c0-0.058,0.02-0.108,0.06-0.152c0.04-0.043,0.087-0.064,0.143-0.064c0.054,0,0.101,0.021,0.142,0.063l0.329,0.356c0.011,0.01,0.022,0.016,0.035,0.018h0.596c0.013-0.002,0.025-0.008,0.036-0.018l0.257-0.276c0.007-0.012,0.011-0.024,0.013-0.038v-0.211c-0.002-0.014-0.006-0.026-0.013-0.038l-0.257-0.276c-0.011-0.01-0.022-0.016-0.036-0.018H9.815c-0.123,0-0.228-0.047-0.315-0.14l-0.261-0.284c-0.086-0.096-0.128-0.21-0.128-0.343v-0.217c0-0.133,0.042-0.247,0.128-0.343L9.5,39.339c0.088-0.093,0.193-0.14,0.315-0.14H10.417z"
      />
    </g>
    <g
      gorn="0.3.1"
      id="SDO">
      <path
        fill="#FFFFFF"
        d="M8.002,32c0.123,0,0.228,0.047,0.315,0.14l0.332,0.361c0.039,0.044,0.058,0.097,0.058,0.157c0,0.059-0.02,0.109-0.06,0.152s-0.086,0.064-0.14,0.064c-0.056,0-0.104-0.021-0.145-0.063l-0.329-0.356c-0.011-0.01-0.022-0.016-0.036-0.018H7.403c-0.013,0.002-0.024,0.008-0.035,0.018L7.11,32.732C7.104,32.744,7.1,32.756,7.098,32.77v0.211c0.002,0.014,0.006,0.026,0.013,0.038l0.258,0.276c0.011,0.01,0.022,0.016,0.035,0.018h0.599c0.123,0,0.228,0.047,0.315,0.14l0.261,0.284c0.086,0.096,0.129,0.21,0.129,0.343v0.217c0,0.133-0.043,0.247-0.129,0.343l-0.261,0.284c-0.088,0.093-0.193,0.14-0.315,0.14H7.4c-0.123,0-0.228-0.047-0.315-0.14l-0.332-0.361c-0.039-0.044-0.058-0.097-0.058-0.157c0-0.058,0.02-0.108,0.06-0.152c0.04-0.043,0.087-0.064,0.143-0.064c0.054,0,0.101,0.021,0.142,0.063l0.329,0.356c0.011,0.01,0.022,0.016,0.035,0.018h0.596c0.013-0.002,0.025-0.008,0.036-0.018l0.257-0.276c0.007-0.012,0.011-0.024,0.013-0.038v-0.211c-0.002-0.014-0.006-0.026-0.013-0.038l-0.257-0.276c-0.011-0.01-0.022-0.016-0.036-0.018H7.4c-0.123,0-0.228-0.047-0.315-0.14l-0.261-0.284c-0.086-0.096-0.128-0.21-0.128-0.343v-0.217c0-0.133,0.042-0.247,0.128-0.343l0.261-0.284C7.173,32.047,7.278,32,7.4,32H8.002z"
      />
      <path
        fill="#FFFFFF"
        d="M10.991,32.424c0.088,0.096,0.132,0.21,0.132,0.343v1.529c0,0.133-0.043,0.247-0.129,0.343l-0.261,0.284c-0.088,0.093-0.193,0.14-0.315,0.14H9.313c-0.056,0-0.104-0.021-0.143-0.064c-0.04-0.043-0.06-0.096-0.06-0.156v-2.621c0-0.061,0.02-0.112,0.06-0.156C9.209,32.022,9.257,32,9.313,32h1.104c0.123,0,0.228,0.048,0.315,0.144L10.991,32.424z M10.706,34.333c0.007-0.012,0.012-0.024,0.014-0.038v-1.522c0-0.015-0.006-0.027-0.018-0.039l-0.254-0.28c-0.011-0.01-0.022-0.016-0.035-0.02h-0.9v2.195h0.903c0.013-0.003,0.025-0.009,0.036-0.02L10.706,34.333z"
      />
      <path
        fill="#FFFFFF"
        d="M13.148,32.14l0.261,0.284c0.086,0.096,0.129,0.21,0.129,0.343v1.529c0,0.133-0.043,0.247-0.129,0.343l-0.261,0.284c-0.088,0.093-0.193,0.14-0.315,0.14H12.23c-0.123,0-0.228-0.047-0.315-0.14l-0.261-0.284c-0.086-0.096-0.128-0.21-0.128-0.343v-1.529c0-0.133,0.042-0.247,0.128-0.343l0.261-0.284C12.003,32.047,12.108,32,12.23,32h0.602C12.955,32,13.06,32.047,13.148,32.14z M13.135,34.295v-1.524c-0.002-0.014-0.008-0.027-0.017-0.039l-0.253-0.28c-0.011-0.009-0.023-0.015-0.036-0.018h-0.596c-0.013,0.003-0.025,0.009-0.036,0.018l-0.257,0.28c-0.006,0.012-0.011,0.024-0.013,0.038v1.523c0.002,0.014,0.006,0.026,0.013,0.038l0.257,0.28c0.011,0.009,0.022,0.015,0.036,0.018h0.598c0.013-0.003,0.025-0.008,0.036-0.015l0.254-0.281C13.128,34.322,13.133,34.309,13.135,34.295z"
      />
    </g>
    <g
      gorn="0.3.2"
      id="SDA">
      <path
        fill="#FFFFFF"
        d="M8.002,24.802c0.123,0,0.228,0.047,0.315,0.14l0.332,0.361c0.039,0.044,0.058,0.097,0.058,0.157c0,0.059-0.02,0.109-0.06,0.152s-0.086,0.064-0.14,0.064c-0.056,0-0.104-0.021-0.145-0.063l-0.329-0.356c-0.011-0.01-0.022-0.016-0.036-0.018H7.403c-0.013,0.002-0.024,0.008-0.035,0.018L7.11,25.534c-0.006,0.012-0.011,0.024-0.013,0.038v0.211c0.002,0.014,0.006,0.026,0.013,0.038l0.258,0.276c0.011,0.01,0.022,0.016,0.035,0.018h0.599c0.123,0,0.228,0.047,0.315,0.14l0.261,0.284c0.086,0.096,0.129,0.21,0.129,0.343v0.217c0,0.133-0.043,0.247-0.129,0.343l-0.261,0.284c-0.088,0.093-0.193,0.14-0.315,0.14H7.4c-0.123,0-0.228-0.047-0.315-0.14l-0.332-0.361c-0.039-0.044-0.058-0.097-0.058-0.157c0-0.058,0.02-0.108,0.06-0.152c0.04-0.043,0.087-0.064,0.143-0.064c0.054,0,0.101,0.021,0.142,0.063l0.329,0.356c0.011,0.01,0.022,0.016,0.035,0.018h0.596c0.013-0.002,0.025-0.008,0.036-0.018l0.257-0.276c0.007-0.012,0.011-0.024,0.013-0.038v-0.211c-0.002-0.014-0.006-0.026-0.013-0.038L8.035,26.57c-0.011-0.01-0.022-0.016-0.036-0.018H7.4c-0.123,0-0.228-0.047-0.315-0.14l-0.261-0.284c-0.086-0.096-0.128-0.21-0.128-0.343v-0.217c0-0.133,0.042-0.247,0.128-0.343l0.261-0.284c0.088-0.093,0.193-0.14,0.315-0.14H8.002z"
      />
      <path
        fill="#FFFFFF"
        d="M10.991,25.226c0.088,0.096,0.132,0.21,0.132,0.343v1.529c0,0.133-0.043,0.247-0.129,0.343l-0.261,0.284c-0.088,0.093-0.193,0.14-0.315,0.14H9.313c-0.056,0-0.104-0.021-0.143-0.064c-0.04-0.043-0.06-0.096-0.06-0.156v-2.621c0-0.061,0.02-0.112,0.06-0.156c0.04-0.043,0.087-0.064,0.143-0.064h1.104c0.123,0,0.228,0.048,0.315,0.144L10.991,25.226z M10.706,27.135c0.007-0.012,0.012-0.024,0.014-0.038v-1.522c0-0.015-0.006-0.027-0.018-0.039l-0.254-0.28c-0.011-0.01-0.022-0.016-0.035-0.02h-0.9v2.195h0.903c0.013-0.003,0.025-0.009,0.036-0.02L10.706,27.135z"
      />
      <path
        fill="#FFFFFF"
        d="M13.409,25.664c0.086,0.096,0.129,0.21,0.129,0.343v1.638c0,0.061-0.02,0.113-0.06,0.156s-0.086,0.064-0.14,0.064c-0.056,0-0.104-0.021-0.143-0.064c-0.04-0.044-0.06-0.096-0.06-0.156v-1.096h-1.208v1.096c0,0.061-0.02,0.112-0.06,0.156c-0.04,0.043-0.086,0.064-0.14,0.064c-0.056,0-0.104-0.021-0.143-0.064c-0.04-0.043-0.06-0.096-0.06-0.156v-1.638c0-0.133,0.042-0.247,0.128-0.343l0.734-0.798c0.041-0.043,0.088-0.063,0.142-0.063c0.056,0,0.104,0.021,0.145,0.063L13.409,25.664z M11.928,26.115h1.208v-0.105c-0.002-0.014-0.006-0.026-0.013-0.038l-0.589-0.641l-0.593,0.641c-0.006,0.012-0.011,0.024-0.013,0.038V26.115z"
      />
    </g>
    <g
      gorn="0.3.3"
      id="SCL">
      <path
        fill="#FFFFFF"
        d="M8.002,17.604c0.123,0,0.228,0.047,0.315,0.14l0.332,0.36c0.039,0.044,0.058,0.097,0.058,0.158c0,0.058-0.02,0.109-0.06,0.152c-0.04,0.043-0.086,0.065-0.14,0.065c-0.056,0-0.104-0.021-0.145-0.063l-0.329-0.357c-0.011-0.009-0.022-0.015-0.036-0.018H7.403c-0.013,0.002-0.024,0.008-0.035,0.018L7.11,18.335c-0.006,0.012-0.011,0.024-0.013,0.039v0.21C7.1,18.598,7.104,18.61,7.11,18.622l0.258,0.276c0.011,0.009,0.022,0.015,0.035,0.018h0.599c0.123,0,0.228,0.047,0.315,0.14l0.261,0.283c0.086,0.096,0.129,0.21,0.129,0.343v0.217c0,0.133-0.043,0.248-0.129,0.343l-0.261,0.283c-0.088,0.093-0.193,0.14-0.315,0.14H7.4c-0.123,0-0.228-0.047-0.315-0.14l-0.332-0.36c-0.039-0.044-0.058-0.097-0.058-0.158c0-0.058,0.02-0.109,0.06-0.152c0.04-0.043,0.087-0.065,0.143-0.065c0.054,0,0.101,0.021,0.142,0.063l0.329,0.357c0.011,0.009,0.022,0.015,0.035,0.018h0.596c0.013-0.002,0.025-0.008,0.036-0.018l0.257-0.276c0.007-0.012,0.011-0.024,0.013-0.039v-0.21c-0.002-0.014-0.006-0.027-0.013-0.039l-0.257-0.276c-0.011-0.009-0.022-0.015-0.036-0.018H7.4c-0.123,0-0.228-0.047-0.315-0.14L6.824,18.93c-0.086-0.096-0.128-0.21-0.128-0.343V18.37c0-0.133,0.042-0.248,0.128-0.343l0.261-0.283c0.088-0.093,0.193-0.14,0.315-0.14H8.002z"
      />
      <path
        fill="#FFFFFF"
        d="M9.527,18.333c-0.008,0.012-0.012,0.024-0.014,0.039v1.526c0.002,0.014,0.006,0.027,0.014,0.039l0.254,0.277c0.011,0.01,0.022,0.016,0.036,0.019h0.6c0.013-0.002,0.025-0.007,0.036-0.015l0.328-0.361c0.041-0.043,0.087-0.065,0.141-0.065c0.056,0,0.103,0.021,0.143,0.065c0.04,0.043,0.059,0.095,0.059,0.156c0,0.058-0.019,0.109-0.058,0.154l-0.332,0.36c-0.088,0.093-0.193,0.14-0.315,0.14H9.815c-0.123,0-0.228-0.047-0.315-0.14l-0.261-0.283c-0.086-0.096-0.128-0.21-0.128-0.343V18.37c0-0.133,0.042-0.248,0.128-0.343L9.5,17.744c0.088-0.093,0.193-0.14,0.315-0.14h0.602c0.123,0,0.228,0.047,0.315,0.14l0.332,0.36c0.039,0.044,0.058,0.096,0.058,0.154c0,0.061-0.02,0.113-0.06,0.156c-0.04,0.043-0.087,0.065-0.144,0.065c-0.054,0-0.101-0.021-0.142-0.062l-0.328-0.361c-0.011-0.009-0.023-0.014-0.036-0.017H9.816c-0.013,0.002-0.024,0.009-0.035,0.019L9.527,18.333z"
      />
      <path
        fill="#FFFFFF"
        d="M13.338,20.232c0.054,0,0.101,0.021,0.14,0.064c0.04,0.042,0.06,0.094,0.06,0.154c0,0.058-0.02,0.108-0.06,0.151c-0.04,0.042-0.086,0.064-0.14,0.064h-1.61c-0.056,0-0.104-0.021-0.143-0.065c-0.04-0.043-0.06-0.094-0.06-0.152v-2.625c0-0.061,0.02-0.113,0.06-0.156c0.04-0.043,0.087-0.065,0.143-0.065c0.054,0,0.101,0.021,0.14,0.065c0.04,0.043,0.06,0.095,0.06,0.156v2.408H13.338z"
      />
    </g>
    <g
      gorn="0.3.4"
      id="GND">
      <path
        fill="#FFFFFF"
        d="M7.11,11.135C7.104,11.147,7.1,11.16,7.098,11.174v1.523c0.002,0.014,0.006,0.027,0.013,0.039l0.257,0.28c0.011,0.009,0.022,0.014,0.036,0.017H8c0.013-0.003,0.025-0.008,0.036-0.017l0.257-0.28c0.006-0.012,0.011-0.025,0.013-0.039v-0.543h-0.2c-0.056,0-0.104-0.021-0.143-0.064c-0.04-0.043-0.06-0.095-0.06-0.155c0-0.058,0.02-0.108,0.06-0.151c0.04-0.043,0.087-0.064,0.143-0.064h0.402c0.054,0,0.101,0.021,0.14,0.064c0.04,0.043,0.06,0.095,0.06,0.156v0.761c0,0.133-0.043,0.247-0.129,0.342l-0.261,0.283c-0.088,0.093-0.193,0.14-0.315,0.14H7.4c-0.123,0-0.228-0.047-0.315-0.14l-0.261-0.283c-0.086-0.096-0.128-0.21-0.128-0.343v-1.529c0-0.133,0.042-0.248,0.128-0.343l0.261-0.283c0.088-0.093,0.193-0.14,0.315-0.14h0.602c0.123,0,0.228,0.047,0.315,0.14l0.332,0.36c0.039,0.044,0.058,0.097,0.058,0.158c0,0.058-0.02,0.109-0.06,0.152c-0.04,0.043-0.087,0.065-0.144,0.065c-0.054,0-0.101-0.021-0.142-0.062l-0.328-0.361C8.024,10.847,8.012,10.841,8,10.838H7.403c-0.013,0.003-0.025,0.008-0.036,0.017L7.11,11.135z"
      />
      <path
        fill="#FFFFFF"
        d="M10.923,10.404c0.056,0,0.103,0.021,0.142,0.065c0.039,0.043,0.058,0.095,0.058,0.156v2.625c0,0.058-0.019,0.109-0.058,0.152c-0.039,0.043-0.085,0.065-0.142,0.065c-0.056,0-0.104-0.021-0.143-0.065c-0.04-0.043-0.06-0.094-0.06-0.152v-0.789L9.513,11.15v2.1c0,0.058-0.02,0.109-0.058,0.152c-0.039,0.043-0.086,0.065-0.142,0.065s-0.104-0.021-0.143-0.065c-0.04-0.043-0.06-0.094-0.06-0.152v-2.625c0-0.061,0.02-0.113,0.06-0.156c0.04-0.043,0.087-0.065,0.143-0.065s0.103,0.021,0.142,0.063l1.266,1.379v-1.221c0-0.061,0.02-0.113,0.06-0.156C10.819,10.426,10.867,10.404,10.923,10.404z"
      />
      <path
        fill="#FFFFFF"
        d="M13.406,10.828c0.088,0.096,0.132,0.21,0.132,0.343V12.7c0,0.133-0.043,0.248-0.129,0.343l-0.261,0.283c-0.088,0.093-0.193,0.14-0.315,0.14h-1.104c-0.056,0-0.104-0.021-0.143-0.065c-0.04-0.043-0.06-0.095-0.06-0.156v-2.621c0-0.061,0.02-0.113,0.06-0.156c0.04-0.043,0.087-0.065,0.143-0.065h1.104c0.123,0,0.228,0.048,0.315,0.144L13.406,10.828z M13.121,12.737c0.007-0.012,0.012-0.024,0.014-0.039v-1.522c0-0.014-0.006-0.027-0.018-0.039l-0.254-0.281c-0.011-0.009-0.022-0.016-0.035-0.019h-0.9v2.194h0.903c0.013-0.002,0.025-0.009,0.036-0.019L13.121,12.737z"
      />
    </g>
    <g
      gorn="0.3.5"
      id="VCC">
      <path
        fill="#FFFFFF"
        d="M8.505,3.206c0.056,0,0.104,0.021,0.143,0.065c0.04,0.043,0.06,0.095,0.06,0.156v1.638c0,0.133-0.043,0.248-0.129,0.343L7.845,6.205C7.804,6.247,7.755,6.268,7.7,6.268c-0.054,0-0.101-0.021-0.142-0.063L6.824,5.407c-0.086-0.096-0.128-0.21-0.128-0.343V3.426c0-0.061,0.02-0.113,0.06-0.156c0.04-0.043,0.086-0.065,0.14-0.065c0.056,0,0.104,0.021,0.144,0.065c0.04,0.043,0.06,0.095,0.06,0.156v1.636C7.1,5.077,7.104,5.089,7.112,5.101l0.589,0.641l0.59-0.641c0.007-0.012,0.012-0.024,0.014-0.039V3.426c0-0.061,0.02-0.113,0.06-0.156C8.404,3.227,8.451,3.206,8.505,3.206z"
      />
      <path
        fill="#FFFFFF"
        d="M9.527,3.935C9.519,3.947,9.515,3.959,9.513,3.974V5.5c0.002,0.014,0.006,0.027,0.014,0.039l0.254,0.277c0.011,0.01,0.022,0.016,0.036,0.019h0.6c0.013-0.002,0.025-0.007,0.036-0.015l0.328-0.361c0.041-0.043,0.087-0.065,0.141-0.065c0.056,0,0.103,0.021,0.143,0.065c0.04,0.043,0.059,0.095,0.059,0.156c0,0.058-0.019,0.109-0.058,0.154l-0.332,0.36c-0.088,0.093-0.193,0.14-0.315,0.14H9.815c-0.123,0-0.228-0.047-0.315-0.14L9.239,5.845C9.153,5.749,9.11,5.635,9.11,5.501V3.972c0-0.133,0.042-0.248,0.128-0.343L9.5,3.346c0.088-0.093,0.193-0.14,0.315-0.14h0.602c0.123,0,0.228,0.047,0.315,0.14l0.332,0.36c0.039,0.044,0.058,0.096,0.058,0.154c0,0.061-0.02,0.113-0.06,0.156c-0.04,0.043-0.087,0.065-0.144,0.065c-0.054,0-0.101-0.021-0.142-0.062L10.45,3.657c-0.011-0.009-0.023-0.014-0.036-0.017H9.816C9.804,3.642,9.792,3.648,9.781,3.658L9.527,3.935z"
      />
      <path
        fill="#FFFFFF"
        d="M11.942,3.935c-0.008,0.012-0.012,0.024-0.014,0.039V5.5c0.002,0.014,0.006,0.027,0.014,0.039l0.254,0.277c0.011,0.01,0.022,0.016,0.036,0.019h0.6c0.013-0.002,0.025-0.007,0.036-0.015l0.328-0.361c0.041-0.043,0.087-0.065,0.141-0.065c0.056,0,0.103,0.021,0.143,0.065c0.04,0.043,0.059,0.095,0.059,0.156c0,0.058-0.019,0.109-0.058,0.154l-0.332,0.36c-0.088,0.093-0.193,0.14-0.315,0.14H12.23c-0.123,0-0.228-0.047-0.315-0.14l-0.261-0.283c-0.086-0.096-0.128-0.21-0.128-0.343V3.972c0-0.133,0.042-0.248,0.128-0.343l0.261-0.283c0.088-0.093,0.193-0.14,0.315-0.14h0.602c0.123,0,0.228,0.047,0.315,0.14l0.332,0.36c0.039,0.044,0.058,0.096,0.058,0.154c0,0.061-0.02,0.113-0.06,0.156c-0.04,0.043-0.087,0.065-0.144,0.065c-0.054,0-0.101-0.021-0.142-0.062l-0.328-0.361c-0.011-0.009-0.023-0.014-0.036-0.017h-0.598c-0.013,0.002-0.024,0.009-0.035,0.019L11.942,3.935z"
      />
    </g>
  </g>
  <g
    gorn="0.4"
    id="MOSFET">
    <path
      fill="#333333"
      d="M30.2,24.253c0,0.078-0.063,0.142-0.142,0.142h-4.961c-0.078,0-0.142-0.063-0.142-0.142v-2.835c0-0.078,0.063-0.142,0.142-0.142h4.961c0.078,0,0.142,0.063,0.142,0.142V24.253z"
    />
    <g
      gorn="0.4.1"
      id="Shading_1_">
      <path
        stroke="#2A2A2A"
        fill="none"
        d="M30.2,24.253c0,0.078-0.063,0.142-0.142,0.142h-4.961c-0.078,0-0.142-0.063-0.142-0.142"
        stroke-width="0.25"
      />
      <circle
        cx="25.942"
        cy="23.742"
        r="0.25"
        fill="#4D4D4D"
      />
      <line
        y1="24.253"
        y2="21.418"
        x1="24.956"
        stroke="#3D3D3D"
        x2="24.956"
        fill="none"
        stroke-linecap="round"
        stroke-width="0.25"
      />
      <line
        y1="21.418"
        y2="24.253"
        x1="30.2"
        stroke="#3D3D3D"
        x2="30.2"
        fill="none"
        stroke-linecap="round"
        stroke-width="0.25"
      />
      <path
        stroke="#4D4D4D"
        fill="none"
        stroke-linecap="round"
        d="M24.956,21.418c0-0.078,0.063-0.142,0.142-0.142h4.961c0.078,0,0.142,0.063,0.142,0.142"
        stroke-width="0.25"
      />
    </g>
    <g
      transform="matrix(1 0 0 1 26.1777 23.2661)">
      <g>
        <g>
          <g>
            <text
              font-family="OCRA"
              font-size="1.2903"
              fill="#555555">702</text>
          </g>
        </g>
      </g>
    </g>
  </g>
</svg>
